#include <stdio.h>
int main()
{
    int a, b , suma;
    printf("Introduceti 2 valori intregi:");
    scanf("%d%d", &a, &b);
    suma = a+b;
    printf("Suma celor doua numere este:%d", suma);
    return 0;
}