#include <stdio.h>
int main()
{
    int a, b;
    float media;
    printf("Introduceti 2 valori intregi:\n");
    scanf("%d%d", &a, &b);
    media = (float)(a+b)/2;
    printf("Media celor doua numere este:%.2f", media);
    return 0;
}