#include <stdio.h>
int main()
{
    int a,b, min, max;
    printf("Introduceti doua numere intregi:\n");
    scanf("%d\n%d", &a, &b);
    (a>b)?(min=b):(min=a);
    (a<b)?(max=b):(max=a);
    (a==b)?printf("Numerele sunt egale."):printf("Minimul este: %d\nMaximul este: %d", min, max);
    return 0;
}