#include <stdio.h>
int main()
{
    float a,b,x;
    printf("Introduceti limitele intervalului [a,b):\n");
    scanf("%f\n%f", &a, &b);
    printf("\nIntroduceti valoarea x:\n");
    scanf("%f", &x);
    x>=a&x<b?printf("\n%.2f se afla in intervalul [%.2f,%.2f)", x, a, b):printf("\n%.2f NU se afla in intervalul [%.2f,%.2f)", x, a, b);
    return 0;
}