#include <stdio.h>

int main()
{
    float a,b;
    printf("Introduceti primul numar:");
    scanf("%f", &a);
    printf("\nIntroduceti al doilea numar:");
    scanf("%f", &b);
    if (a>b)
    {
        printf("\nMaximul este %f", a);
    }    
    else if(a==b)
    {
        printf("\nCele doua numere sunt egale.");
    }
    else
    {
        printf("\nMaximul este: %f", b);
    };
    return 0;
}