
#include <stdio.h>

int main()
{
    char a;
    printf("Introduceti o litera:\n");
    scanf("%c", &a);
    if(a>=65&&a<=90)
    {
        printf("\nLitera introdusa este o LITERA MARE.");
    }
    else if(a>=97&&a<=122)
    {
        printf("\nLitera introdusa este o litera mica.");
    }
    else
    {
        printf("Nu ati introdus o litera.");
    };
    return 0;
}