#include <stdio.h>

int main()
{
    int x,i,f=1;
    printf("Introduceti un numar natural:\n");
    scanf("%d", &x);
    for(i=1;i<=x;i++)
    {
        f=f*i;
    };
    printf("Factorialul lui %d este: %d", x,f);
    return 0;
    
}