#include <stdio.h>

int main()
{
    int i,pas;
    float F;
    printf("Introduceti pasul:\n");
    scanf("%d", &pas);
    printf("\ngrade C\tgrade F\n");
    for(i=0;i<=400;i+=pas)
    {
        F=(float)9*i/5+32;
        printf("\n%d\t%.2f", i, F);
    };
    return 0;
}